module bitbucket.org/potential-ly/p

go 1.12

require (
	github.com/armon/consul-api v0.0.0-20180202201655-eb2c6b5be1b6 // indirect
	github.com/aws/aws-sdk-go v1.35.31
	github.com/coreos/go-etcd v2.0.0+incompatible // indirect
	github.com/cpuguy83/go-md2man v1.0.10 // indirect
	github.com/fsnotify/fsnotify v1.4.9 // indirect
	github.com/magiconair/properties v1.8.4 // indirect
	github.com/mitchellh/go-homedir v1.1.0
	github.com/mitchellh/mapstructure v1.3.3 // indirect
	github.com/pelletier/go-toml v1.8.1 // indirect
	github.com/smartystreets/goconvey v1.6.4 // indirect
	github.com/spf13/afero v1.4.1 // indirect
	github.com/spf13/cast v1.3.1 // indirect
	github.com/spf13/cobra v1.1.1
	github.com/spf13/jwalterweatherman v1.1.0 // indirect
	github.com/spf13/pflag v1.0.5 // indirect
	github.com/spf13/viper v1.7.1
	github.com/ugorji/go v1.1.4 // indirect
	github.com/ugorji/go/codec v0.0.0-20181204163529-d75b2dcb6bc8 // indirect
	github.com/xordataexchange/crypt v0.0.3-0.20170626215501-b2862e3d0a77 // indirect
	golang.org/x/sys v0.0.0-20201118182958-a01c418693c7 // indirect
	golang.org/x/text v0.3.4 // indirect
	gopkg.in/ini.v1 v1.62.0
	gopkg.in/yaml.v2 v2.3.0 // indirect
)
